[gd_scene load_steps=5 format=2]

[ext_resource path="res://player.gd" type="Script" id=1]
[ext_resource path="res://logic_c.cs" type="Script" id=2]

[sub_resource type="CapsuleShape" id=1]


[sub_resource type="CapsuleMesh" id=2]


[node name="player" type="KinematicBody"]
script = ExtResource( 1 )

[node name="CollisionShape" type="CollisionShape" parent="."]
transform = Transform( 1, 0, 0, 0, -4.37114e-08, 1, 0, -1, -4.37114e-08, 0, 0, 0 )
shape = SubResource( 1 )

[node name="MeshInstance" type="MeshInstance" parent="CollisionShape"]
mesh = SubResource( 2 )
material/0 = null

[node name="logic_c" type="Node" parent="."]
script = ExtResource( 2 )

[node name="yaw" type="Spatial" parent="."]

[node name="cam" type="InterpolatedCamera" parent="yaw"]
current = true
target = NodePath("../pitch/camera_holder")
speed = 20.0
enabled = true

[node name="pitch" type="Spatial" parent="yaw"]

[node name="camera_holder" type="Position3D" parent="yaw/pitch"]
transform = Transform( 1, 0, 0, 0, 1, 0, 0, 0, 1, 0, 3.5, 4.6 )

[node name="cam_focus" type="Position3D" parent="."]
transform = Transform( 1, 0, 0, 0, 1, 0, 0, 0, 1, 0, 1.27323, 0 )

